CONTAINER matdeg3d
{
	INCLUDE Mpreview;
	INCLUDE Xbase;

	GROUP ID_SHADERPROPERTIES
	{
		GRADIENT VONCMATDEG_DEGU { }
		GRADIENT VONCMATDEG_DEGV { }
		GRADIENT VONCMATDEG_DEGW { }
		LONG VONCMATDEG_MEL
		{
			CYCLE
			{
				VONCMATDEG_MEL_PROD;
				VONCMATDEG_MEL_ADD;
				VONCMATDEG_MEL_MOY;
			}
			FIT_H;
		}
		SEPARATOR { LINE; }
		VECTOR VONCMATDEG_ECH { STEP 0.01; }
		VECTOR VONCMATDEG_DEC { STEP 0.01; }
		BOOL VONCMATDEG_REP { }
		LONG VONCMATDEG_MODE
		{
			CYCLE
			{
				VONCMATDEG_MODE_UV;
				VONCMATDEG_MODE_GLO;
			}
			FIT_H;
		}
		SEPARATOR { LINE; }
		REAL VONCMATDEG_TURB			 { UNIT PERCENT; MIN 0.0; MAX 100.0; }
		REAL VONCMATDEG_TURB_OCTAVES	 { MIN 0.0; MAX 10.0; STEP 0.1; }
		REAL VONCMATDEG_TURB_ECH		 { UNIT PERCENT; MIN 0.0; MAX 1000.0; }
		REAL VONCMATDEG_TURB_FREQ		 { MIN 0.0; MAX 1000.0; STEP 0.1; }
		BOOL VONCMATDEG_TURB_ABSOLU		 { }
	}
}
